ActsPixelClusterizationAlg                                        INFO Clusterization statistics
|----------|------------|
| RDOs     |    3423993 |
| Clusters |    1165578 |
|----------|------------|
ActsStripClusterizationAlg                                        INFO Clusterization statistics
|----------|------------|
| RDOs     |    1345365 |
| Clusters |    1081478 |
|----------|------------|
ActsPixelClusterPreparationAlg                                    INFO Data Prep statistics
|---------|------------|
| Inputs  |    1165578 |
| Outputs |    1165578 |
|---------|------------|
ActsStripClusterPreparationAlg                                    INFO Data Prep statistics
|---------|------------|
| Inputs  |    1081478 |
| Outputs |    1081478 |
|---------|------------|
ActsPixelSpacePointFormationAlg                                   INFO Space Point Formation statistics
|--------------|------------|
| Clusters     |    1165578 |
| Space Points |    1165578 |
|--------------|------------|
ActsStripSpacePointFormationAlg                                   INFO Space Point Formation statistics
|----------------------|------------|
| Clusters             |    1081478 |
| Space Points         |     325456 |
| Overlap Space Points |     101370 |
|----------------------|------------|
ActsPixelSpacePointPreparationAlg                                 INFO Data Prep statistics
|---------|------------|
| Inputs  |    1165578 |
| Outputs |    1165578 |
|---------|------------|
ActsStripSpacePointPreparationAlg                                 INFO Data Prep statistics
|---------|------------|
| Inputs  |     325456 |
| Outputs |     325456 |
|---------|------------|
ActsStripOverlapSpacePointPreparationAlg                          INFO Data Prep statistics
|---------|------------|
| Inputs  |     101370 |
| Outputs |     101370 |
|---------|------------|
ActsPixelSeedingAlg                                               INFO Seed statistics
|-------------|------------|
| Spacepoints |    1165578 |
| Seeds       |     123542 |
|-------------|------------|
ActsStripSeedingAlg                                               INFO Seed statistics
|-------------|------------|
| Spacepoints |     426826 |
| Seeds       |      25844 |
|-------------|------------|
ActsTrackFindingAlg                                               INFO statistics
|-----------------------------------|------------|------------|------------|
|                           All eta | PPP        | SSS        | ALL        |
|-----------------------------------|------------|------------|------------|
| Input seeds                       |     123542 |      25844 |     149386 |
| No track parameters               |          0 |          0 |          0 |
| Used   seeds                      |      78111 |      16379 |      94490 |
| Cannot find track                 |      63305 |      12493 |      75798 |
| Duplicate seeds                   |      45431 |       9465 |      54896 |
| Initial param estimation failed   |          0 |          0 |          0 |
| CKF tracks                        |      14806 |       3886 |      18692 |
| Rejected refined parameters       |          0 |          0 |          0 |
| selected tracks                   |      13385 |        839 |      14224 |
| Stopped tracks reaching max holes |      60891 |      11976 |      72867 |
| Seeds with more than one branch   |          0 |          0 |          0 |
| Tracks failing second CKF         |         11 |        194 |        205 |
| Stopped tracks below pT cut       |       2414 |        517 |       2931 |
| Stopped tracks above max eta      |          0 |          0 |          0 |
| Total shared hits                 |      93962 |      18780 |     112742 |
|-----------------------------------|------------|------------|------------|
ActsTrackFindingAlg                                               INFO Ratios
|------------------------------------------|------------|------------|------------|
|                                          | PPP        | SSS        | ALL        |
|------------------------------------------|------------|------------|------------|
| failed / seeds                           |   0.512417 |     0.4834 |   0.507397 |
| duplication / seeds                      |   0.367737 |   0.366236 |   0.367478 |
| Rejected refined params / seeds          |          0 |          0 |          0 |
| selected / CKF tracks                    |   0.904025 |   0.215903 |   0.760967 |
| selected tracks / used seeds             |   0.171359 |  0.0512241 |   0.150534 |
| branched tracks / used seeds             |          0 |          0 |          0 |
| no 2nd CKF / CKF tracks                  | 0.000742942 |  0.0499228 |  0.0109673 |
| shared hits / CKF tracks                 |    6.34621 |    4.83273 |    6.03156 |
|------------------------------------------|------------|------------|------------|
| selected / CKF tracks           0.0- 0.5 |   0.890205 |   0.115681 |   0.708157 |
|                                 0.5- 1.0 |   0.913255 |   0.251407 |   0.734549 |
|                                 1.0- 1.5 |    0.88605 |   0.225086 |   0.696552 |
|                                 1.5- 2.0 |   0.793103 |   0.226903 |   0.552201 |
|                                 2.0- 2.5 |   0.943406 |   0.215743 |   0.698791 |
|                                 2.5- 3.0 |   0.882987 |          0 |   0.882987 |
|                                 3.0- 3.5 |   0.942103 |          0 |   0.942103 |
|                                 3.5-+inf |   0.960328 |          0 |   0.960328 |
|------------------------------------------|------------|------------|------------|
ActsPrdAssociationAlg                                             INFO Prd Map statistics
|-----------------------|------------|
| N. Tracks             |       9547 |
| N. Pixel Measurements |     102077 |
| N. Strip Measurements |      40056 |
| N. Hgtd Measurements  |          0 |
|-----------------------|------------|
ActsLargeRadiusPixelClusterizationAlg                             INFO Clusterization statistics
|----------|------------|
| RDOs     |          0 |
| Clusters |          0 |
|----------|------------|
ActsLargeRadiusStripClusterizationAlg                             INFO Clusterization statistics
|----------|------------|
| RDOs     |          0 |
| Clusters |          0 |
|----------|------------|
ActsLargeRadiusPixelClusterPreparationAlg                         INFO Data Prep statistics
|---------|------------|
| Inputs  |    1165578 |
| Outputs |    1063573 |
|---------|------------|
ActsLargeRadiusStripClusterPreparationAlg                         INFO Data Prep statistics
|---------|------------|
| Inputs  |    1081478 |
| Outputs |    1041457 |
|---------|------------|
ActsLargeRadiusStripSpacePointFormationAlg                        INFO Space Point Formation statistics
|----------------------|------------|
| Clusters             |    1041457 |
| Space Points         |          0 |
| Overlap Space Points |          0 |
|----------------------|------------|
ActsLargeRadiusStripSpacePointPreparationAlg                      INFO Data Prep statistics
|---------|------------|
| Inputs  |     324432 |
| Outputs |     303585 |
|---------|------------|
ActsLargeRadiusStripOv...pSpacePointPreparationAlg                INFO Data Prep statistics
|---------|------------|
| Inputs  |     100933 |
| Outputs |      94594 |
|---------|------------|
ActsLargeRadiusStripSeedingAlg                                    INFO Seed statistics
|-------------|------------|
| Spacepoints |     398179 |
| Seeds       |      10158 |
|-------------|------------|
ActsLargeRadiusTrackFindingAlg                                    INFO statistics
|-----------------------------------|------------|------------|
|                           All eta | SSS        | ALL        |
|-----------------------------------|------------|------------|
| Input seeds                       |      10158 |      10158 |
| No track parameters               |          0 |          0 |
| Used   seeds                      |       9956 |       9956 |
| Cannot find track                 |       8987 |       8987 |
| Duplicate seeds                   |        202 |        202 |
| Initial param estimation failed   |          0 |          0 |
| CKF tracks                        |        969 |        969 |
| Rejected refined parameters       |          0 |          0 |
| selected tracks                   |        124 |        124 |
| Stopped tracks reaching max holes |       7014 |       7014 |
| Seeds with more than one branch   |          0 |          0 |
| Tracks failing second CKF         |         30 |         30 |
| Stopped tracks below pT cut       |       1973 |       1973 |
| Stopped tracks above max eta      |          0 |          0 |
| Total shared hits                 |        743 |        743 |
|-----------------------------------|------------|------------|
ActsLargeRadiusTrackFindingAlg                                    INFO Ratios
|------------------------------------------|------------|------------|
|                                          | SSS        | ALL        |
|------------------------------------------|------------|------------|
| failed / seeds                           |   0.884721 |   0.884721 |
| duplication / seeds                      |  0.0198858 |  0.0198858 |
| Rejected refined params / seeds          |          0 |          0 |
| selected / CKF tracks                    |   0.127967 |   0.127967 |
| selected tracks / used seeds             |  0.0124548 |  0.0124548 |
| branched tracks / used seeds             |          0 |          0 |
| no 2nd CKF / CKF tracks                  |  0.0309598 |  0.0309598 |
| shared hits / CKF tracks                 |    0.76677 |    0.76677 |
|------------------------------------------|------------|------------|
| selected / CKF tracks           0.0- 0.5 |   0.169014 |   0.169014 |
|                                 0.5- 1.0 |   0.223529 |   0.223529 |
|                                 1.0- 1.5 |   0.212766 |   0.212766 |
|                                 1.5- 2.0 |   0.119718 |   0.119718 |
|                                 2.0- 2.5 |  0.0750853 |  0.0750853 |
|                                 2.5- 3.0 |          0 |          0 |
|                                 3.0- 3.5 |          0 |          0 |
|                                 3.5-+inf |          0 |          0 |
|------------------------------------------|------------|------------|
ActsLargeRadiusPrdAssociationAlg                                  INFO Prd Map statistics
|-----------------------|------------|
| N. Tracks             |         93 |
| N. Pixel Measurements |        475 |
| N. Strip Measurements |        880 |
| N. Hgtd Measurements  |          0 |
|-----------------------|------------|
ActsConversionPixelClusterizationAlg                              INFO Clusterization statistics
|----------|------------|
| RDOs     |          0 |
| Clusters |          0 |
|----------|------------|
ActsConversionStripClusterizationAlg                              INFO Clusterization statistics
|----------|------------|
| RDOs     |          0 |
| Clusters |          0 |
|----------|------------|
ActsConversionPixelClusterPreparationAlg                          INFO Data Prep statistics
|---------|------------|
| Inputs  |      30471 |
| Outputs |      27113 |
|---------|------------|
ActsConversionStripClusterPreparationAlg                          INFO Data Prep statistics
|---------|------------|
| Inputs  |      16420 |
| Outputs |      15516 |
|---------|------------|
ActsConversionStripSpacePointFormationAlg                         INFO Space Point Formation statistics
|----------------------|------------|
| Clusters             |      15516 |
| Space Points         |          0 |
| Overlap Space Points |          0 |
|----------------------|------------|
ActsConversionStripSpacePointPreparationAlg                       INFO Data Prep statistics
|---------|------------|
| Inputs  |       4979 |
| Outputs |       4502 |
|---------|------------|
ActsConversionStripSeedingAlg                                     INFO Seed statistics
|-------------|------------|
| Spacepoints |       4502 |
| Seeds       |         71 |
|-------------|------------|
ActsConversionTrackFindingAlg                                     INFO statistics
|-----------------------------------|------------|------------|
|                           All eta | SSS        | ALL        |
|-----------------------------------|------------|------------|
| Input seeds                       |         71 |         71 |
| No track parameters               |          0 |          0 |
| Used   seeds                      |         71 |         71 |
| Cannot find track                 |         54 |         54 |
| Duplicate seeds                   |          0 |          0 |
| Initial param estimation failed   |          0 |          0 |
| CKF tracks                        |         17 |         17 |
| Rejected refined parameters       |          0 |          0 |
| selected tracks                   |          0 |          0 |
| Stopped tracks reaching max holes |         46 |         46 |
| Seeds with more than one branch   |          0 |          0 |
| Tracks failing second CKF         |          0 |          0 |
| Stopped tracks below pT cut       |          8 |          8 |
| Stopped tracks above max eta      |          0 |          0 |
| Total shared hits                 |          0 |          0 |
|-----------------------------------|------------|------------|
ActsConversionTrackFindingAlg                                     INFO Ratios
|------------------------------------------|------------|------------|
|                                          | SSS        | ALL        |
|------------------------------------------|------------|------------|
| failed / seeds                           |   0.760563 |   0.760563 |
| duplication / seeds                      |          0 |          0 |
| Rejected refined params / seeds          |          0 |          0 |
| selected / CKF tracks                    |          0 |          0 |
| selected tracks / used seeds             |          0 |          0 |
| branched tracks / used seeds             |          0 |          0 |
| no 2nd CKF / CKF tracks                  |          0 |          0 |
| shared hits / CKF tracks                 |          0 |          0 |
|------------------------------------------|------------|------------|
| selected / CKF tracks           0.0- 0.5 |          0 |          0 |
|                                 0.5- 1.0 |          0 |          0 |
|                                 1.0- 1.5 |          0 |          0 |
|                                 1.5- 2.0 |          0 |          0 |
|                                 2.0- 2.5 |          0 |          0 |
|                                 2.5- 3.0 |          0 |          0 |
|                                 3.0- 3.5 |          0 |          0 |
|                                 3.5-+inf |          0 |          0 |
|------------------------------------------|------------|------------|
ActsConversionPrdAssociationAlg                                   INFO Prd Map statistics
|-----------------------|------------|
| N. Tracks             |          0 |
| N. Pixel Measurements |          0 |
| N. Strip Measurements |          0 |
| N. Hgtd Measurements  |          0 |
|-----------------------|------------|
ActsLowPtPixelClusterizationAlg                                   INFO Clusterization statistics
|----------|------------|
| RDOs     |          0 |
| Clusters |          0 |
|----------|------------|
ActsLowPtStripClusterizationAlg                                   INFO Clusterization statistics
|----------|------------|
| RDOs     |          0 |
| Clusters |          0 |
|----------|------------|
ActsLowPtPixelClusterPreparationAlg                               INFO Data Prep statistics
|---------|------------|
| Inputs  |    1165578 |
| Outputs |    1063099 |
|---------|------------|
ActsLowPtStripClusterPreparationAlg                               INFO Data Prep statistics
|---------|------------|
| Inputs  |    1081478 |
| Outputs |    1040577 |
|---------|------------|
ActsLowPtPixelSpacePointFormationAlg                              INFO Space Point Formation statistics
|--------------|------------|
| Clusters     |    1063099 |
| Space Points |          0 |
|--------------|------------|
ActsLowPtStripSpacePointFormationAlg                              INFO Space Point Formation statistics
|----------------------|------------|
| Clusters             |    1040577 |
| Space Points         |          0 |
| Overlap Space Points |          0 |
|----------------------|------------|
ActsLowPtPixelSpacePointPreparationAlg                            INFO Data Prep statistics
|---------|------------|
| Inputs  |    1165561 |
| Outputs |    1063099 |
|---------|------------|
ActsLowPtStripSpacePointPreparationAlg                            INFO Data Prep statistics
|---------|------------|
| Inputs  |     324408 |
| Outputs |     303119 |
|---------|------------|
ActsLowPtStripOverlapSpacePointPreparationAlg                     INFO Data Prep statistics
|---------|------------|
| Inputs  |     100917 |
| Outputs |      94426 |
|---------|------------|
ActsLowPtPixelSeedingAlg                                          INFO Seed statistics
|-------------|------------|
| Spacepoints |    1063099 |
| Seeds       |      46856 |
|-------------|------------|
ActsLowPtStripSeedingAlg                                          INFO Seed statistics
|-------------|------------|
| Spacepoints |     397545 |
| Seeds       |       9617 |
|-------------|------------|
ActsLowPtTrackFindingAlg                                          INFO statistics
|-----------------------------------|------------|------------|------------|
|                           All eta | PPP        | SSS        | ALL        |
|-----------------------------------|------------|------------|------------|
| Input seeds                       |      46856 |       9617 |      56473 |
| No track parameters               |          0 |          0 |          0 |
| Used   seeds                      |      46047 |       9256 |      55303 |
| Cannot find track                 |      44913 |       7486 |      52399 |
| Duplicate seeds                   |        809 |        361 |       1170 |
| Initial param estimation failed   |          0 |          0 |          0 |
| CKF tracks                        |       1134 |       1770 |       2904 |
| Rejected refined parameters       |          0 |          0 |          0 |
| selected tracks                   |        620 |         48 |        668 |
| Stopped tracks reaching max holes |      44471 |       7444 |      51915 |
| Seeds with more than one branch   |          0 |          0 |          0 |
| Tracks failing second CKF         |          0 |         71 |         71 |
| Stopped tracks below pT cut       |        442 |         42 |        484 |
| Stopped tracks above max eta      |          0 |          0 |          0 |
| Total shared hits                 |       3869 |        501 |       4370 |
|-----------------------------------|------------|------------|------------|
ActsLowPtTrackFindingAlg                                          INFO Ratios
|------------------------------------------|------------|------------|------------|
|                                          | PPP        | SSS        | ALL        |
|------------------------------------------|------------|------------|------------|
| failed / seeds                           |   0.958533 |   0.778413 |   0.927859 |
| duplication / seeds                      |  0.0172657 |  0.0375377 |  0.0207179 |
| Rejected refined params / seeds          |          0 |          0 |          0 |
| selected / CKF tracks                    |   0.546737 |  0.0271186 |   0.230028 |
| selected tracks / used seeds             |  0.0134645 | 0.00518583 |  0.0120789 |
| branched tracks / used seeds             |          0 |          0 |          0 |
| no 2nd CKF / CKF tracks                  |          0 |   0.040113 |   0.024449 |
| shared hits / CKF tracks                 |    3.41182 |   0.283051 |    1.50482 |
|------------------------------------------|------------|------------|------------|
| selected / CKF tracks           0.0- 0.5 |   0.833333 |          0 |       0.36 |
|                                 0.5- 1.0 |   0.965909 |  0.0215827 |   0.387665 |
|                                 1.0- 1.5 |   0.948905 |  0.0769231 |   0.451411 |
|                                 1.5- 2.0 |   0.923077 |  0.0413105 |   0.320351 |
|                                 2.0- 2.5 |  0.0657895 | 0.00330579 |   0.010279 |
|                                 2.5- 3.0 |  0.0131004 |          0 |  0.0131004 |
|                                 3.0- 3.5 |  0.0210526 |          0 |  0.0210526 |
|                                 3.5-+inf |  0.0657895 |          0 |  0.0657895 |
|------------------------------------------|------------|------------|------------|
ActsLowPtPrdAssociationAlg                                        INFO Prd Map statistics
|-----------------------|------------|
| N. Tracks             |        509 |
| N. Pixel Measurements |       3844 |
| N. Strip Measurements |       4221 |
| N. Hgtd Measurements  |          0 |
|-----------------------|------------|
